…
### `NA` values

    ## # A tibble: 1,169 × 16
    ##    Album_…¹ Dance…² Energy   Key Loudn…³ Speec…⁴ Acous…⁵ Instr…⁶ Liven…⁷ Valence
    ##    <chr>      <dbl>  <dbl> <dbl>   <dbl>   <dbl>   <dbl>   <dbl>   <dbl>   <dbl>
    ##  1 album      0.566  0.834     6   -8.41  0.0298 2.77e-3 8   e-3  0.0625   0.621
    ##  2 album      0.547  0.394     4   -9.79  0.0262 5.22e-2 6.4 e-6  0.0795   0.17 
    ##  3 album      0.539  0.828     4   -9.11  0.035  6.7 e-4 4.21e-1  0.154    0.562
    ##  4 album      0.531  0.583     7   -9.47  0.0256 1.84e-2 6.24e-3  0.255    0.207
    ##  5 album      0.438  0.687     7   -9.15  0.0619 6.68e-4 8.01e-2  0.42     0.426
    ##  6 album      0.512  0.86      0   -6.14  0.0703 6.31e-3 5.28e-3  0.0652   0.258
    ##  7 album      0.624  0.876     7   -6.00  0.0342 9.26e-4 1.64e-3  0.0561   0.453
    ##  8 album      0.404  0.266    10  -16.7   0.0334 7.16e-1 1.33e-1  0.107    0.491
    ##  9 single     0.878  0.786    11   -5.27  0.152  4.16e-1 3.1 e-5  0.122    0.831
    ## 10 album      0.736  0.727     5   -4.64  0.0571 5.84e-2 1.91e-6  0.0976   0.644
    ## # … with 1,159 more rows, 6 more variables: Tempo <dbl>, Duration_ms <dbl>,
    ## #   Views <dbl>, Likes <dbl>, Comments <dbl>, Stream <dbl>, and abbreviated
    ## #   variable names ¹​Album_type, ²​Danceability, ³​Loudness, ⁴​Speechiness,
    ## #   ⁵​Acousticness, ⁶​Instrumentalness, ⁷​Liveness
…
