…
### `NA` values

    ## # A tibble: 1,169 × 16
    ##    Album_type Danceability Energy   Key Loudness Speechiness Acousticness
    ##    <chr>             <dbl>  <dbl> <dbl>    <dbl>       <dbl>        <dbl>
    ##  1 album             0.566  0.834     6    -8.41      0.0298     0.00277 
    ##  2 album             0.547  0.394     4    -9.79      0.0262     0.0522  
    ##  3 album             0.539  0.828     4    -9.11      0.035      0.00067 
    ##  4 album             0.531  0.583     7    -9.47      0.0256     0.0184  
    ##  5 album             0.438  0.687     7    -9.15      0.0619     0.000668
    ##  6 album             0.512  0.86      0    -6.14      0.0703     0.00631 
    ##  7 album             0.624  0.876     7    -6.00      0.0342     0.000926
    ##  8 album             0.404  0.266    10   -16.7       0.0334     0.716   
    ##  9 single            0.878  0.786    11    -5.27      0.152      0.416   
    ## 10 album             0.736  0.727     5    -4.64      0.0571     0.0584  
    ## # ℹ 1,159 more rows
    ## # ℹ 9 more variables: Instrumentalness <dbl>, Liveness <dbl>, Valence <dbl>,
    ## #   Tempo <dbl>, Duration_ms <dbl>, Views <dbl>, Likes <dbl>, Comments <dbl>,
    ## #   Stream <dbl>
…
